<svg xmlns="http://www.w3.org/2000/svg" viewBox="0 0 24 24" width="24" height="24">
	<defs>
		<clipPath clipPathUnits="userSpaceOnUse" id="cp1">
			<path d="M0 0L24 0L24 24L0 24Z" />
		</clipPath>
	</defs>
	<style>
		tspan { white-space:pre }
		.shp0 { fill: #db003b } 
	</style>
	<g id="Page 1" clip-path="url(#cp1)">
		<path id="Path 1" fill-rule="evenodd" class="shp0" d="M23.54 12.23C23.54 18.73 18.27 24 11.77 24C5.27 24 0 18.73 0 12.23C0 5.73 5.27 0.46 11.77 0.46C18.27 0.46 23.54 5.73 23.54 12.23ZM17.67 13.65C17.67 13.2 17.31 12.84 16.86 12.84L12.58 12.84L12.58 5.34C12.58 4.89 12.22 4.53 11.77 4.53C11.32 4.53 10.96 4.89 10.96 5.34L10.96 13.65C10.96 14.1 11.32 14.47 11.77 14.47C11.79 14.47 11.8 14.46 11.82 14.46C11.84 14.46 11.85 14.47 11.87 14.47L16.86 14.47C17.31 14.47 17.67 14.1 17.67 13.65Z" />
	</g>
</svg>